{
    "order": 10,
    "template": "prometheus-*",
    "settings": {
        "index": {
            "number_of_shards": "12",
            "number_of_replicas": "1",
            "refresh_interval": "90s"
        }
    },
    "mappings": {},
    "aliases": {}
}
